cpu.vcd
$date
	Fri Mar 13 22:05:13 2026
$end
$version
	Icarus Verilog
$end
$timescale
	1ps
$end
$scope module testbench $end
$var wire 32 ! mem_rdata [31:0] $end
$var wire 1 " mem_ready $end
$var wire 1 # pcpi_valid $end
$var wire 32 $ pcpi_rs2 [31:0] $end
$var wire 32 % pcpi_rs1 [31:0] $end
$var wire 32 & pcpi_insn [31:0] $end
$var wire 4 ' mem_wstrb [3:0] $end
$var wire 32 ( mem_wdata [31:0] $end
$var wire 1 ) mem_valid $end
$var wire 1 * mem_instr $end
$var wire 32 + mem_addr [31:0] $end
$var reg 1 , clk $end
$var reg 32 - last_pc [31:0] $end
$var reg 1 . resetn $end
$scope module cpu $end
$var wire 1 , clk $end
$var wire 1 / is_custom $end
$var wire 1 0 is_muldiv_space $end
$var wire 32 1 mem_rdata [31:0] $end
$var wire 1 " mem_ready $end
$var wire 32 2 pcpi_rd [31:0] $end
$var wire 1 3 pcpi_ready $end
$var wire 1 4 pcpi_wait $end
$var wire 1 5 pcpi_wr $end
$var wire 1 . resetn $end
$var wire 1 6 wants_pcpi $end
$var wire 32 7 rs2_val [31:0] $end
$var wire 5 8 rs2 [4:0] $end
$var wire 32 9 rs1_val [31:0] $end
$var wire 5 : rs1 [4:0] $end
$var wire 5 ; rd [4:0] $end
$var wire 7 < opcode [6:0] $end
$var wire 32 = imm_u [31:0] $end
$var wire 32 > imm_s [31:0] $end
$var wire 32 ? imm_j [31:0] $end
$var wire 32 @ imm_i [31:0] $end
$var wire 32 A imm_b [31:0] $end
$var wire 7 B funct7 [6:0] $end
$var wire 3 C funct3 [2:0] $end
$var reg 32 D alu_out [31:0] $end
$var reg 32 E ir [31:0] $end
$var reg 1 F is_load $end
$var reg 1 G is_store $end
$var reg 3 H load_f3 [2:0] $end
$var reg 32 I mem_addr [31:0] $end
$var reg 1 * mem_instr $end
$var reg 1 ) mem_valid $end
$var reg 32 J mem_wdata [31:0] $end
$var reg 4 K mem_wstrb [3:0] $end
$var reg 32 L pc [31:0] $end
$var reg 32 M pcpi_insn [31:0] $end
$var reg 32 N pcpi_rs1 [31:0] $end
$var reg 32 O pcpi_rs2 [31:0] $end
$var reg 1 # pcpi_valid $end
$var reg 3 P state [2:0] $end
$var reg 3 Q store_f3 [2:0] $end
$var reg 1 R take_branch $end
$var reg 1 S trap $end
$var reg 32 T wb_data [31:0] $end
$var reg 1 U wb_en $end
$var reg 5 V wb_rd [4:0] $end
$var integer 32 W i [31:0] $end
$scope function alu_calc $end
$var reg 32 X a [31:0] $end
$var reg 32 Y b [31:0] $end
$var reg 4 Z op [3:0] $end
$upscope $end
$scope function sext16 $end
$var reg 16 [ v [15:0] $end
$upscope $end
$scope function sext8 $end
$var reg 8 \ v [7:0] $end
$upscope $end
$upscope $end
$upscope $end
$enddefinitions $end
#0
$dumpvars
bx \
bx [
bx Z
bx Y
bx X
bx W
bx V
xU
bx T
xS
xR
bx Q
bx P
bx O
bx N
bx M
bx L
bx K
bx J
bx I
bx H
xG
xF
bx E
bx D
bx C
bx B
bx0 A
bx @
bx0 ?
bx >
bx000000000000 =
bx <
bx ;
bx :
bx 9
bx 8
bx 7
x6
05
04
03
b0 2
bx 1
x0
x/
0.
b11111111111111111111111111111111 -
0,
bx +
x*
x)
bx (
bx '
bx &
bx %
bx $
x#
1"
bx !
$end
#5000
06
0/
00
b0 9
b0 7
b10100000000000010010011 !
b10100000000000010010011 1
b0 <
b0 C
b0 B
b0 ;
b0 :
b0 8
b0 @
b0 >
b0 A
b0 =
b0 ?
0R
b0 Q
b0 H
0G
0F
b0 V
0U
b0 T
b0 D
0S
b0 $
b0 O
b0 %
b0 N
b0 &
b0 M
0#
b0 '
b0 K
b0 (
b0 J
b0 +
b0 I
0*
0)
b0 E
b0 L
b0 P
b100000 W
1,
#10000
0,
#15000
b100000 W
1,
#20000
0,
1.
#25000
b10011 <
b1 ;
b101 8
b101 @
b1 >
b100000000000 A
b10100000000000000000000 =
b100000000100 ?
b1 P
b10100000000000010010011 E
1*
0)
b0 -
1,
#30000
0,
#35000
b10 P
b1 V
1,
#40000
0,
#45000
b100 P
b100 L
b101 T
1U
b0 X
b101 Y
b0 Z
1,
#50000
0,
#55000
b0 P
1,
#60000
0,
#65000
b11100000000000100010011 !
b11100000000000100010011 1
b1 P
b100 +
b100 I
0)
0U
1,
#70000
0,
#75000
b100 -
b10 P
b0 T
1,
#80000
0,
#85000
b100 P
b1000 L
b101 T
1U
1,
#90000
0,
#95000
b0 P
1,
#100000
0,
#105000
b10 ;
b111 8
b111 @
b10 >
b10 A
b11100000000000000000000 =
b100000000110 ?
b1000001000000110110011 !
b1000001000000110110011 1
b1 P
b11100000000000100010011 E
b1000 +
b1000 I
0)
0U
1,
#110000
0,
#115000
b1000 -
b10 P
b0 T
b10 V
1,
#120000
0,
#125000
b100 P
b1100 L
b111 T
1U
b111 Y
1,
#130000
0,
#135000
b0 P
1,
#140000
0,
#145000
b101 9
b111 7
b110011 <
b11 ;
b1 :
b10 8
b10 @
b11 >
b100000000010 A
b1000001000000000000000 =
b1000000000000010 ?
b1101111 !
b1101111 1
b1 P
b1000001000000110110011 E
b1100 +
b1100 I
0)
0U
1,
#150000
0,
#155000
b1100 -
b10 P
b0 T
b11 V
1,
#160000
0,
#165000
b100 P
b10000 L
b1100 T
1U
b101 X
1,
#170000
0,
#175000
b0 P
1,
#180000
0,
#185000
b0 9
b0 7
b1101111 <
b0 ;
b0 :
b0 8
b0 @
b0 >
b0 A
b0 =
b0 ?
bx !
bx 1
b1 P
b1101111 E
b10000 +
b10000 I
0)
0U
1,
#190000
0,
#195000
b10000 -
b10 P
b0 T
b0 V
1,
#200000
0,
#205000
b100 P
b10100 T
1,
#210000
0,
#215000
b0 P
1,
#220000
0,
#225000
x6
x/
x0
bx 9
bx 7
bx <
bx C
bx B
bx ;
bx :
bx 8
bx @
bx >
bx0 A
bx000000000000 =
bx0 ?
b1 P
bx E
0)
1,
#230000
0,
#235000
b10 P
b0 T
bx V
1,
#240000
0,
#245000
b0 P
b10100 L
1S
1,
#250000
0,
#255000
b1 P
b10100 +
b10100 I
0)
0S
1,
#260000
0,
#265000
b10 P
b10100 -
1,
#270000
0,
#275000
b0 P
b11000 L
1S
1,
#280000
0,
#285000
b1 P
b11000 +
b11000 I
0)
0S
1,
#290000
0,
#295000
b11000 -
b10 P
1,
#300000
0,
#305000
b0 P
b11100 L
1S
1,
#310000
0,
#315000
b1 P
b11100 +
b11100 I
0)
0S
1,
#320000
0,
#325000
b10 P
b11100 -
1,
#330000
0,
#335000
b0 P
b100000 L
1S
1,
#340000
0,
#345000
b1 P
b100000 +
b100000 I
0)
0S
1,
#350000
0,
#355000
b100000 -
b10 P
1,
#360000
0,
#365000
b0 P
b100100 L
1S
1,
#370000
0,
#375000
b1 P
b100100 +
b100100 I
0)
0S
1,
#380000
0,
#385000
b10 P
b100100 -
1,
#390000
0,
#395000
b0 P
b101000 L
1S
1,
#400000
0,
#405000
b1 P
b101000 +
b101000 I
0)
0S
1,
#410000
0,
#415000
b101000 -
b10 P
1,
#420000
0,
#425000
b0 P
b101100 L
1S
1,
#430000
0,
#435000
b1 P
b101100 +
b101100 I
0)
0S
1,
#440000
0,
#445000
b10 P
b101100 -
1,
#450000
0,
#455000
b0 P
b110000 L
1S
1,
#460000
0,
#465000
b1 P
b110000 +
b110000 I
0)
0S
1,
#470000
0,
#475000
b110000 -
b10 P
1,
#480000
0,
#485000
b0 P
b110100 L
1S
1,
#490000
0,
#495000
b1 P
b110100 +
b110100 I
0)
0S
1,
#500000
0,
#505000
b10 P
b110100 -
1,
#510000
0,
#515000
b0 P
b111000 L
1S
1,
