waves_rtype_pico.vcd
$date
	Thu Mar 26 23:42:25 2026
$end
$version
	Icarus Verilog
$end
$timescale
	1s
$end
$scope module tb_rtype_pico $end
$var wire 1 ! trap $end
$var wire 1 " pcpi_valid $end
$var wire 32 # pcpi_rs2 [31:0] $end
$var wire 32 $ pcpi_rs1 [31:0] $end
$var wire 32 % pcpi_insn [31:0] $end
$var wire 4 & mem_wstrb [3:0] $end
$var wire 32 ' mem_wdata [31:0] $end
$var wire 1 ( mem_valid $end
$var wire 1 ) mem_instr $end
$var wire 32 * mem_addr [31:0] $end
$var reg 1 + clk $end
$var reg 32 , mem_rdata [31:0] $end
$var reg 1 - mem_ready $end
$var reg 32 . pcpi_rd [31:0] $end
$var reg 1 / pcpi_ready $end
$var reg 1 0 pcpi_wait $end
$var reg 1 1 pcpi_wr $end
$var reg 1 2 resetn $end
$var integer 32 3 fail_count [31:0] $end
$var integer 32 4 i [31:0] $end
$var integer 32 5 pass_count [31:0] $end
$scope module dut $end
$var wire 1 + clk $end
$var wire 1 6 is_custom $end
$var wire 1 7 is_muldiv_space $end
$var wire 32 8 mem_rdata [31:0] $end
$var wire 1 - mem_ready $end
$var wire 32 9 pcpi_rd [31:0] $end
$var wire 1 / pcpi_ready $end
$var wire 1 0 pcpi_wait $end
$var wire 1 1 pcpi_wr $end
$var wire 1 2 resetn $end
$var wire 1 : wants_pcpi $end
$var wire 32 ; rs2_val [31:0] $end
$var wire 5 < rs2 [4:0] $end
$var wire 32 = rs1_val [31:0] $end
$var wire 5 > rs1 [4:0] $end
$var wire 5 ? rd [4:0] $end
$var wire 7 @ opcode [6:0] $end
$var wire 32 A imm_u [31:0] $end
$var wire 32 B imm_s [31:0] $end
$var wire 32 C imm_j [31:0] $end
$var wire 32 D imm_i [31:0] $end
$var wire 32 E imm_b [31:0] $end
$var wire 7 F funct7 [6:0] $end
$var wire 3 G funct3 [2:0] $end
$var reg 32 H alu_out [31:0] $end
$var reg 32 I ir [31:0] $end
$var reg 1 J is_load $end
$var reg 1 K is_store $end
$var reg 3 L load_f3 [2:0] $end
$var reg 32 M mem_addr [31:0] $end
$var reg 1 ) mem_instr $end
$var reg 1 ( mem_valid $end
$var reg 32 N mem_wdata [31:0] $end
$var reg 4 O mem_wstrb [3:0] $end
$var reg 32 P pc [31:0] $end
$var reg 32 Q pcpi_insn [31:0] $end
$var reg 32 R pcpi_rs1 [31:0] $end
$var reg 32 S pcpi_rs2 [31:0] $end
$var reg 1 " pcpi_valid $end
$var reg 3 T state [2:0] $end
$var reg 3 U store_f3 [2:0] $end
$var reg 1 V take_branch $end
$var reg 1 ! trap $end
$var reg 32 W wb_data [31:0] $end
$var reg 1 X wb_en $end
$var reg 5 Y wb_rd [4:0] $end
$var integer 32 Z i [31:0] $end
$scope function alu_calc $end
$var reg 32 [ a [31:0] $end
$var reg 32 \ b [31:0] $end
$var reg 4 ] op [3:0] $end
$upscope $end
$scope function sext16 $end
$var reg 16 ^ v [15:0] $end
$upscope $end
$scope function sext8 $end
$var reg 8 _ v [7:0] $end
$upscope $end
$upscope $end
$scope task check_reg $end
$var reg 32 ` expected [31:0] $end
$var reg 5 a reg_num [4:0] $end
$var reg 128 b test_name [127:0] $end
$upscope $end
$scope task clear_mem $end
$upscope $end
$scope task load_and_run $end
$var integer 32 c num_cycles [31:0] $end
$upscope $end
$upscope $end
$enddefinitions $end
#0
$dumpvars
b110010 c
bx b
bx a
bx `
bx _
bx ^
bx ]
bx \
bx [
bx Z
bx Y
xX
bx W
xV
bx U
bx T
bx S
bx R
bx Q
bx P
bx O
bx N
bx M
bx L
xK
xJ
bx I
bx H
bx G
bx F
bx0 E
bx D
bx0 C
bx B
bx000000000000 A
bx @
bx ?
bx >
bx =
bx <
bx ;
x:
b0 9
b0 8
x7
x6
b0 5
b100000000 4
b0 3
02
01
00
0/
b0 .
0-
b0 ,
0+
bx *
x)
x(
bx '
bx &
bx %
bx $
bx #
x"
x!
$end
#5
0:
06
07
b0 =
b0 ;
b0 @
b0 G
b0 F
b0 ?
b0 >
b0 <
b0 D
b0 B
b0 E
b0 A
b0 C
0V
b0 U
b0 L
0K
0J
b0 Y
0X
b0 W
b0 H
0!
b0 #
b0 S
b0 $
b0 R
b0 %
b0 Q
0"
b0 &
b0 O
b0 '
b0 N
b0 *
b0 M
0)
0(
b0 I
b0 P
b0 T
b100000 Z
1+
#10
0+
#15
b100000 Z
1+
#20
0+
12
#25
b10100000000000010010011 ,
b10100000000000010010011 8
1-
1)
1(
1+
#30
0+
#35
b0 ,
b0 8
0-
b10011 @
b1 ?
b101 <
b101 D
b1 B
b100000000000 E
b10100000000000000000000 A
b100000000100 C
b1 T
0(
b10100000000000010010011 I
1+
#40
0+
#45
b10 T
b1 Y
1+
#50
0+
#55
b100 T
b100 P
b101 W
1X
b0 [
b101 \
b0 ]
1+
#60
0+
#65
b0 T
1+
#70
0+
#75
b1100000000000100010011 ,
b1100000000000100010011 8
1-
b100 *
b100 M
1(
0X
1+
#80
0+
#85
b0 ,
b0 8
0-
b10 ?
b11 <
b11 D
b10 B
b10 E
b1100000000000000000000 A
b100000000010 C
b1 T
0(
b1100000000000100010011 I
1+
#90
0+
#95
b10 T
b0 W
b10 Y
1+
#100
0+
#105
b100 T
b1000 P
b11 W
1X
b11 \
1+
#110
0+
#115
b0 T
1+
#120
0+
#125
b1000001000000110110011 ,
b1000001000000110110011 8
1-
b1000 *
b1000 M
1(
0X
1+
#130
0+
#135
b101 =
b11 ;
b0 ,
b0 8
0-
b110011 @
b11 ?
b1 >
b10 <
b10 D
b11 B
b100000000010 E
b1000001000000000000000 A
b1000000000000010 C
b1 T
0(
b1000001000000110110011 I
1+
#140
0+
#145
b10 T
b0 W
b11 Y
1+
#150
0+
#155
b100 T
b1100 P
b1000 W
1X
b101 [
1+
#160
0+
#165
b0 T
1+
#170
0+
#175
b10011 ,
b10011 8
1-
b1100 *
b1100 M
1(
0X
1+
#180
0+
#185
b0 =
b0 ;
b0 ,
b0 8
0-
b10011 @
b0 ?
b0 >
b0 <
b0 D
b0 B
b0 E
b0 A
b0 C
b1 T
0(
b10011 I
1+
#190
0+
#195
b10 T
b0 W
b0 Y
1+
#200
0+
#205
b100 T
b10000 P
b0 [
b0 \
1+
#210
0+
#215
b0 T
1+
#220
0+
#225
b10011 ,
b10011 8
1-
b10000 *
b10000 M
1(
1+
#230
0+
#235
b0 ,
b0 8
0-
b1 T
0(
1+
#240
0+
#245
b10 T
1+
#250
0+
#255
b100 T
b10100 P
1+
#260
0+
#265
b0 T
1+
#270
0+
#275
b10011 ,
b10011 8
1-
b10100 *
b10100 M
1(
1+
#280
0+
#285
b0 ,
b0 8
0-
b1 T
0(
1+
#290
0+
#295
b10 T
1+
#300
0+
#305
b100 T
b11000 P
1+
#310
0+
#315
b0 T
1+
#320
0+
#325
b10011 ,
b10011 8
1-
b11000 *
b11000 M
1(
1+
#330
0+
#335
b0 ,
b0 8
0-
b1 T
0(
1+
#340
0+
#345
b10 T
1+
#350
0+
#355
b100 T
b11100 P
1+
#360
0+
#365
b0 T
1+
#370
0+
#375
b10011 ,
b10011 8
1-
b11100 *
b11100 M
1(
1+
#380
0+
#385
b0 ,
b0 8
0-
b1 T
0(
1+
#390
0+
#395
b10 T
1+
#400
0+
#405
b100 T
b100000 P
1+
#410
0+
#415
b0 T
1+
#420
0+
#425
b10011 ,
b10011 8
1-
b100000 *
b100000 M
1(
1+
#430
0+
#435
b0 ,
b0 8
0-
b1 T
0(
1+
#440
0+
#445
b10 T
1+
#450
0+
#455
b100 T
b100100 P
1+
#460
0+
#465
b0 T
1+
#470
0+
#475
b10011 ,
b10011 8
1-
b100100 *
b100100 M
1(
1+
#480
0+
#485
b0 ,
b0 8
0-
b1 T
0(
1+
#490
0+
#495
b10 T
1+
#500
0+
#505
b100 T
b101000 P
1+
#510
0+
#515
b0 T
b1111000001100010010101101111000001100100010000000101000001101010010101100110011001111010011100000101001001000000010000000100000 b
b1000 `
b11 a
1+
#516
02
b100000000 4
b1 5
#520
0+
#525
b0 @
b0 *
b0 M
0)
b0 I
b0 P
b100000 Z
1+
#530
0+
#535
b100000 Z
1+
#536
12
#540
0+
#545
b101000000000000010010011 ,
b101000000000000010010011 8
1-
1)
1(
1+
#550
0+
#555
b0 ,
b0 8
0-
b10011 @
b1 ?
b1010 <
b1010 D
b1 B
b100000000000 E
b101000000000000000000000 A
b1010 C
b1 T
0(
b101000000000000010010011 I
1+
#560
0+
#565
b10 T
b1 Y
1+
#570
0+
#575
b100 T
b100 P
b1010 W
1X
b1010 \
1+
#580
0+
#585
b0 T
1+
#590
0+
#595
b1100000000000100010011 ,
b1100000000000100010011 8
1-
b100 *
b100 M
1(
0X
1+
#600
0+
#605
b0 ,
b0 8
0-
b10 ?
b11 <
b11 D
b10 B
b10 E
b1100000000000000000000 A
b100000000010 C
b1 T
0(
b1100000000000100010011 I
1+
#610
0+
#615
b10 T
b0 W
b10 Y
1+
#620
0+
#625
b100 T
b1000 P
b11 W
1X
b11 \
1+
#630
0+
#635
b0 T
1+
#640
0+
#645
b1000000001000001000000110110011 ,
b1000000001000001000000110110011 8
1-
b1000 *
b1000 M
1(
0X
1+
#650
0+
#655
b1010 =
b11 ;
b0 ,
b0 8
0-
b110011 @
b100000 F
b11 ?
b1 >
b10 <
b10000000010 D
b10000000011 B
b110000000010 E
b1000000001000001000000000000000 A
b1000010000000010 C
b1 T
0(
b1000000001000001000000110110011 I
1+
#660
0+
#665
b10 T
b0 W
b11 Y
1+
#670
0+
#675
b100 T
b1100 P
b111 W
1X
b1010 [
b1 ]
1+
#680
0+
#685
b0 T
1+
#690
0+
#695
b10011 ,
b10011 8
1-
b1100 *
b1100 M
1(
0X
1+
#700
0+
#705
b0 =
b0 ;
b0 ,
b0 8
0-
b10011 @
b0 F
b0 ?
b0 >
b0 <
b0 D
b0 B
b0 E
b0 A
b0 C
b1 T
0(
b10011 I
1+
#710
0+
#715
b10 T
b0 W
b0 Y
1+
#720
0+
#725
b100 T
b10000 P
b0 [
b0 \
b0 ]
1+
#730
0+
#735
b0 T
1+
#740
0+
#745
b10011 ,
b10011 8
1-
b10000 *
b10000 M
1(
1+
#750
0+
#755
b0 ,
b0 8
0-
b1 T
0(
1+
#760
0+
#765
b10 T
1+
#770
0+
#775
b100 T
b10100 P
1+
#780
0+
#785
b0 T
1+
#790
0+
#795
b10011 ,
b10011 8
1-
b10100 *
b10100 M
1(
1+
#800
0+
#805
b0 ,
b0 8
0-
b1 T
0(
1+
#810
0+
#815
b10 T
1+
#820
0+
#825
b100 T
b11000 P
1+
#830
0+
#835
b0 T
1+
#840
0+
#845
b10011 ,
b10011 8
1-
b11000 *
b11000 M
1(
1+
#850
0+
#855
b0 ,
b0 8
0-
b1 T
0(
1+
#860
0+
#865
b10 T
1+
#870
0+
#875
b100 T
b11100 P
1+
#880
0+
#885
b0 T
1+
#890
0+
#895
b10011 ,
b10011 8
1-
b11100 *
b11100 M
1(
1+
#900
0+
#905
b0 ,
b0 8
0-
b1 T
0(
1+
#910
0+
#915
b10 T
1+
#920
0+
#925
b100 T
b100000 P
1+
#930
0+
#935
b0 T
1+
#940
0+
#945
b10011 ,
b10011 8
1-
b100000 *
b100000 M
1(
1+
#950
0+
#955
b0 ,
b0 8
0-
b1 T
0(
1+
#960
0+
#965
b10 T
1+
#970
0+
#975
b100 T
b100100 P
1+
#980
0+
#985
b0 T
1+
#990
0+
#995
b10011 ,
b10011 8
1-
b100100 *
b100100 M
1(
1+
#1000
0+
#1005
b0 ,
b0 8
0-
b1 T
0(
1+
#1010
0+
#1015
b10 T
1+
#1020
0+
#1025
b100 T
b101000 P
1+
#1030
0+
#1035
b0 T
b1111000001100010010110101111000001100100010000000101000001100010011000000101101001100110011110100110111001010010010000000100000 b
b111 `
1+
#1036
02
b100000000 4
b10 5
#1040
0+
#1045
b0 @
b0 *
b0 M
0)
b0 I
b0 P
b100000 Z
1+
#1050
0+
#1055
b100000 Z
1+
#1056
12
#1060
0+
#1065
b1111111100000000000010010011 ,
b1111111100000000000010010011 8
1-
1)
1(
1+
#1070
0+
#1075
b0 ,
b0 8
0-
b10011 @
b111 F
b1 ?
b11111 <
b11111111 D
b11100001 B
b100011100000 E
b1111111100000000000000000000 A
b100011111110 C
b1 T
0(
b1111111100000000000010010011 I
1+
#1080
0+
#1085
b10 T
b1 Y
1+
#1090
0+
#1095
b100 T
b100 P
b11111111 W
1X
b11111111 \
1+
#1100
0+
#1105
b0 T
1+
#1110
0+
#1115
b111100000000000100010011 ,
b111100000000000100010011 8
1-
b100 *
b100 M
1(
0X
1+
#1120
0+
#1125
b0 ,
b0 8
0-
b0 F
b10 ?
b1111 <
b1111 D
b10 B
b10 E
b111100000000000000000000 A
b100000001110 C
b1 T
0(
b111100000000000100010011 I
1+
#1130
0+
#1135
b10 T
b0 W
b10 Y
1+
#1140
0+
#1145
b100 T
b1000 P
b1111 W
1X
b1111 \
1+
#1150
0+
#1155
b0 T
1+
#1160
0+
#1165
b1000001111000110110011 ,
b1000001111000110110011 8
1-
b1000 *
b1000 M
1(
0X
1+
#1170
0+
#1175
b11111111 =
b1111 ;
b0 ,
b0 8
0-
b110011 @
b111 G
b11 ?
b1 >
b10 <
b10 D
b11 B
b100000000010 E
b1000001111000000000000 A
b1111000000000010 C
b1 T
0(
b1000001111000110110011 I
1+
#1180
0+
#1185
b10 T
b0 W
b11 Y
1+
#1190
0+
#1195
b100 T
b1100 P
b1111 W
1X
b11111111 [
b10 ]
1+
#1200
0+
#1205
b0 T
1+
#1210
0+
#1215
b10011 ,
b10011 8
1-
b1100 *
b1100 M
1(
0X
1+
#1220
0+
#1225
b0 =
b0 ;
b0 ,
b0 8
0-
b10011 @
b0 G
b0 ?
b0 >
b0 <
b0 D
b0 B
b0 E
b0 A
b0 C
b1 T
0(
b10011 I
1+
#1230
0+
#1235
b10 T
b0 W
b0 Y
1+
#1240
0+
#1245
b100 T
b10000 P
b0 [
b0 \
b0 ]
1+
#1250
0+
#1255
b0 T
1+
#1260
0+
#1265
b10011 ,
b10011 8
1-
b10000 *
b10000 M
1(
1+
#1270
0+
#1275
b0 ,
b0 8
0-
b1 T
0(
1+
#1280
0+
#1285
b10 T
1+
#1290
0+
#1295
b100 T
b10100 P
1+
#1300
0+
#1305
b0 T
1+
#1310
0+
#1315
b10011 ,
b10011 8
1-
b10100 *
b10100 M
1(
1+
#1320
0+
#1325
b0 ,
b0 8
0-
b1 T
0(
1+
#1330
0+
#1335
b10 T
1+
#1340
0+
#1345
b100 T
b11000 P
1+
#1350
0+
#1355
b0 T
1+
#1360
0+
#1365
b10011 ,
b10011 8
1-
b11000 *
b11000 M
1(
1+
#1370
0+
#1375
b0 ,
b0 8
0-
b1 T
0(
1+
#1380
0+
#1385
b10 T
1+
#1390
0+
#1395
b100 T
b11100 P
1+
#1400
0+
#1405
b0 T
1+
#1410
0+
#1415
b10011 ,
b10011 8
1-
b11100 *
b11100 M
1(
1+
#1420
0+
#1425
b0 ,
b0 8
0-
b1 T
0(
1+
#1430
0+
#1435
b10 T
1+
#1440
0+
#1445
b100 T
b100000 P
1+
#1450
0+
#1455
b0 T
1+
#1460
0+
#1465
b10011 ,
b10011 8
1-
b100000 *
b100000 M
1(
1+
#1470
0+
#1475
b0 ,
b0 8
0-
b1 T
0(
1+
#1480
0+
#1485
b10 T
1+
#1490
0+
#1495
b100 T
b100100 P
1+
#1500
0+
#1505
b0 T
1+
#1510
0+
#1515
b10011 ,
b10011 8
1-
b100100 *
b100100 M
1(
1+
#1520
0+
#1525
b0 ,
b0 8
0-
b1 T
0(
1+
#1530
0+
#1535
b10 T
1+
#1540
0+
#1545
b100 T
b101000 P
1+
#1550
0+
#1555
b0 T
b1111000001100010010011001111000001100100010000000101000010001100100011000100110001100000100011000111101001100000100011000101001 b
b1111 `
1+
#1556
02
b100000000 4
b11 5
#1560
0+
#1565
b0 @
b0 *
b0 M
0)
b0 I
b0 P
b100000 Z
1+
#1570
0+
#1575
b100000 Z
1+
#1576
12
#1580
0+
#1585
b1111000000000000000010010011 ,
b1111000000000000000010010011 8
1-
1)
1(
1+
#1590
0+
#1595
b0 ,
b0 8
0-
b10011 @
b111 F
b1 ?
b10000 <
b11110000 D
b11100001 B
b100011100000 E
b1111000000000000000000000000 A
b11110000 C
b1 T
0(
b1111000000000000000010010011 I
1+
#1600
0+
#1605
b10 T
b1 Y
1+
#1610
0+
#1615
b100 T
b100 P
b11110000 W
1X
b11110000 \
1+
#1620
0+
#1625
b0 T
1+
#1630
0+
#1635
b111100000000000100010011 ,
b111100000000000100010011 8
1-
b100 *
b100 M
1(
0X
1+
#1640
0+
#1645
b0 ,
b0 8
0-
b0 F
b10 ?
b1111 <
b1111 D
b10 B
b10 E
b111100000000000000000000 A
b100000001110 C
b1 T
0(
b111100000000000100010011 I
1+
#1650
0+
#1655
b10 T
b0 W
b10 Y
1+
#1660
0+
#1665
b100 T
b1000 P
b1111 W
1X
b1111 \
1+
#1670
0+
#1675
b0 T
1+
#1680
0+
#1685
b1000001110000110110011 ,
b1000001110000110110011 8
1-
b1000 *
b1000 M
1(
0X
1+
#1690
0+
#1695
b11110000 =
b1111 ;
b0 ,
b0 8
0-
b110011 @
b110 G
b11 ?
b1 >
b10 <
b10 D
b11 B
b100000000010 E
b1000001110000000000000 A
b1110000000000010 C
b1 T
0(
b1000001110000110110011 I
1+
#1700
0+
#1705
b10 T
b0 W
b11 Y
1+
#1710
0+
#1715
b100 T
b1100 P
b11111111 W
1X
b11110000 [
b11 ]
1+
#1720
0+
#1725
b0 T
1+
#1730
0+
#1735
b10011 ,
b10011 8
1-
b1100 *
b1100 M
1(
0X
1+
#1740
0+
#1745
b0 =
b0 ;
b0 ,
b0 8
0-
b10011 @
b0 G
b0 ?
b0 >
b0 <
b0 D
b0 B
b0 E
b0 A
b0 C
b1 T
0(
b10011 I
1+
#1750
0+
#1755
b10 T
b0 W
b0 Y
1+
#1760
0+
#1765
b100 T
b10000 P
b0 [
b0 \
b0 ]
1+
#1770
0+
#1775
b0 T
1+
#1780
0+
#1785
b10011 ,
b10011 8
1-
b10000 *
b10000 M
1(
1+
#1790
0+
#1795
b0 ,
b0 8
0-
b1 T
0(
1+
#1800
0+
#1805
b10 T
1+
#1810
0+
#1815
b100 T
b10100 P
1+
#1820
0+
#1825
b0 T
1+
#1830
0+
#1835
b10011 ,
b10011 8
1-
b10100 *
b10100 M
1(
1+
#1840
0+
#1845
b0 ,
b0 8
0-
b1 T
0(
1+
#1850
0+
#1855
b10 T
1+
#1860
0+
#1865
b100 T
b11000 P
1+
#1870
0+
#1875
b0 T
1+
#1880
0+
#1885
b10011 ,
b10011 8
1-
b11000 *
b11000 M
1(
1+
#1890
0+
#1895
b0 ,
b0 8
0-
b1 T
0(
1+
#1900
0+
#1905
b10 T
1+
#1910
0+
#1915
b100 T
b11100 P
1+
#1920
0+
#1925
b0 T
1+
#1930
0+
#1935
b10011 ,
b10011 8
1-
b11100 *
b11100 M
1(
1+
#1940
0+
#1945
b0 ,
b0 8
0-
b1 T
0(
1+
#1950
0+
#1955
b10 T
1+
#1960
0+
#1965
b100 T
b100000 P
1+
#1970
0+
#1975
b0 T
1+
#1980
0+
#1985
b10011 ,
b10011 8
1-
b100000 *
b100000 M
1(
1+
#1990
0+
#1995
b0 ,
b0 8
0-
b1 T
0(
1+
#2000
0+
#2005
b10 T
1+
#2010
0+
#2015
b100 T
b100100 P
1+
#2020
0+
#2025
b0 T
1+
#2030
0+
#2035
b10011 ,
b10011 8
1-
b100100 *
b100100 M
1(
1+
#2040
0+
#2045
b0 ,
b0 8
0-
b1 T
0(
1+
#2050
0+
#2055
b10 T
1+
#2060
0+
#2065
b100 T
b101000 P
1+
#2070
0+
#2075
b0 T
b1111000001100010111110001111000001100100010000000101000010001100011000001111100001100000100011000111101010001100100011000101001 b
b11111111 `
1+
#2076
02
b100000000 4
b100 5
#2080
0+
#2085
b0 @
b0 *
b0 M
0)
b0 I
b0 P
b100000 Z
1+
#2090
0+
#2095
b100000 Z
1+
#2096
12
#2100
0+
#2105
b1111111100000000000010010011 ,
b1111111100000000000010010011 8
1-
1)
1(
1+
#2110
0+
#2115
b0 ,
b0 8
0-
b10011 @
b111 F
b1 ?
b11111 <
b11111111 D
b11100001 B
b100011100000 E
b1111111100000000000000000000 A
b100011111110 C
b1 T
0(
b1111111100000000000010010011 I
1+
#2120
0+
#2125
b10 T
b1 Y
1+
#2130
0+
#2135
b100 T
b100 P
b11111111 W
1X
b11111111 \
1+
#2140
0+
#2145
b0 T
1+
#2150
0+
#2155
b111100000000000100010011 ,
b111100000000000100010011 8
1-
b100 *
b100 M
1(
0X
1+
#2160
0+
#2165
b0 ,
b0 8
0-
b0 F
b10 ?
b1111 <
b1111 D
b10 B
b10 E
b111100000000000000000000 A
b100000001110 C
b1 T
0(
b111100000000000100010011 I
1+
#2170
0+
#2175
b10 T
b0 W
b10 Y
1+
#2180
0+
#2185
b100 T
b1000 P
b1111 W
1X
b1111 \
1+
#2190
0+
#2195
b0 T
1+
#2200
0+
#2205
b1000001100000110110011 ,
b1000001100000110110011 8
1-
b1000 *
b1000 M
1(
0X
1+
#2210
0+
#2215
b11111111 =
b1111 ;
b0 ,
b0 8
0-
b110011 @
b100 G
b11 ?
b1 >
b10 <
b10 D
b11 B
b100000000010 E
b1000001100000000000000 A
b1100000000000010 C
b1 T
0(
b1000001100000110110011 I
1+
#2220
0+
#2225
b10 T
b0 W
b11 Y
1+
#2230
0+
#2235
b100 T
b1100 P
b11110000 W
1X
b11111111 [
b100 ]
1+
#2240
0+
#2245
b0 T
1+
#2250
0+
#2255
b10011 ,
b10011 8
1-
b1100 *
b1100 M
1(
0X
1+
#2260
0+
#2265
b0 =
b0 ;
b0 ,
b0 8
0-
b10011 @
b0 G
b0 ?
b0 >
b0 <
b0 D
b0 B
b0 E
b0 A
b0 C
b1 T
0(
b10011 I
1+
#2270
0+
#2275
b10 T
b0 W
b0 Y
1+
#2280
0+
#2285
b100 T
b10000 P
b0 [
b0 \
b0 ]
1+
#2290
0+
#2295
b0 T
1+
#2300
0+
#2305
b10011 ,
b10011 8
1-
b10000 *
b10000 M
1(
1+
#2310
0+
#2315
b0 ,
b0 8
0-
b1 T
0(
1+
#2320
0+
#2325
b10 T
1+
#2330
0+
#2335
b100 T
b10100 P
1+
#2340
0+
#2345
b0 T
1+
#2350
0+
#2355
b10011 ,
b10011 8
1-
b10100 *
b10100 M
1(
1+
#2360
0+
#2365
b0 ,
b0 8
0-
b1 T
0(
1+
#2370
0+
#2375
b10 T
1+
#2380
0+
#2385
b100 T
b11000 P
1+
#2390
0+
#2395
b0 T
1+
#2400
0+
#2405
b10011 ,
b10011 8
1-
b11000 *
b11000 M
1(
1+
#2410
0+
#2415
b0 ,
b0 8
0-
b1 T
0(
1+
#2420
0+
#2425
b10 T
1+
#2430
0+
#2435
b100 T
b11100 P
1+
#2440
0+
#2445
b0 T
1+
#2450
0+
#2455
b10011 ,
b10011 8
1-
b11100 *
b11100 M
1(
1+
#2460
0+
#2465
b0 ,
b0 8
0-
b1 T
0(
1+
#2470
0+
#2475
b10 T
1+
#2480
0+
#2485
b100 T
b100000 P
1+
#2490
0+
#2495
b0 T
1+
#2500
0+
#2505
b10011 ,
b10011 8
1-
b100000 *
b100000 M
1(
1+
#2510
0+
#2515
b0 ,
b0 8
0-
b1 T
0(
1+
#2520
0+
#2525
b10 T
1+
#2530
0+
#2535
b100 T
b100100 P
1+
#2540
0+
#2545
b0 T
1+
#2550
0+
#2555
b10011 ,
b10011 8
1-
b100100 *
b100100 M
1(
1+
#2560
0+
#2565
b0 ,
b0 8
0-
b1 T
0(
1+
#2570
0+
#2575
b10 T
1+
#2580
0+
#2585
b100 T
b101000 P
1+
#2590
0+
#2595
b0 T
b1111000001100010101111001111000001100100010000000101000010001100100011001011110001100000100011000111101010001100011000000101001 b
b11110000 `
1+
#2596
02
b100000000 4
b101 5
#2600
0+
#2605
b0 @
b0 *
b0 M
0)
b0 I
b0 P
b100000 Z
1+
#2610
0+
#2615
b100000 Z
1+
#2616
12
#2620
0+
#2625
b100000000000010010011 ,
b100000000000010010011 8
1-
1)
1(
1+
#2630
0+
#2635
b0 ,
b0 8
0-
b10011 @
b1 ?
b1 <
b1 D
b1 B
b100000000000 E
b100000000000000000000 A
b100000000000 C
b1 T
0(
b100000000000010010011 I
1+
#2640
0+
#2645
b10 T
b1 Y
1+
#2650
0+
#2655
b100 T
b100 P
b1 W
1X
b1 \
1+
#2660
0+
#2665
b1 ;
b0 T
1+
#2670
0+
#2675
b10000000000000100010011 ,
b10000000000000100010011 8
1-
b100 *
b100 M
1(
0X
1+
#2680
0+
#2685
b0 ;
b0 ,
b0 8
0-
b10 ?
b100 <
b100 D
b10 B
b10 E
b10000000000000000000000 A
b100 C
b1 T
0(
b10000000000000100010011 I
1+
#2690
0+
#2695
b10 T
b0 W
b10 Y
1+
#2700
0+
#2705
b100 T
b1000 P
b100 W
1X
b100 \
1+
#2710
0+
#2715
b0 T
1+
#2720
0+
#2725
b1000001001000110110011 ,
b1000001001000110110011 8
1-
b1000 *
b1000 M
1(
0X
1+
#2730
0+
#2735
b1 =
b100 ;
b0 ,
b0 8
0-
b110011 @
b1 G
b11 ?
b1 >
b10 <
b10 D
b11 B
b100000000010 E
b1000001001000000000000 A
b1001000000000010 C
b1 T
0(
b1000001001000110110011 I
1+
#2740
0+
#2745
b10 T
b0 W
b11 Y
1+
#2750
0+
#2755
b100 T
b1100 P
b10000 W
1X
b1 [
b101 ]
1+
#2760
0+
#2765
b0 T
1+
#2770
0+
#2775
b10011 ,
b10011 8
1-
b1100 *
b1100 M
1(
0X
1+
#2780
0+
#2785
b0 =
b0 ;
b0 ,
b0 8
0-
b10011 @
b0 G
b0 ?
b0 >
b0 <
b0 D
b0 B
b0 E
b0 A
b0 C
b1 T
0(
b10011 I
1+
#2790
0+
#2795
b10 T
b0 W
b0 Y
1+
#2800
0+
#2805
b100 T
b10000 P
b0 [
b0 \
b0 ]
1+
#2810
0+
#2815
b0 T
1+
#2820
0+
#2825
b10011 ,
b10011 8
1-
b10000 *
b10000 M
1(
1+
#2830
0+
#2835
b0 ,
b0 8
0-
b1 T
0(
1+
#2840
0+
#2845
b10 T
1+
#2850
0+
#2855
b100 T
b10100 P
1+
#2860
0+
#2865
b0 T
1+
#2870
0+
#2875
b10011 ,
b10011 8
1-
b10100 *
b10100 M
1(
1+
#2880
0+
#2885
b0 ,
b0 8
0-
b1 T
0(
1+
#2890
0+
#2895
b10 T
1+
#2900
0+
#2905
b100 T
b11000 P
1+
#2910
0+
#2915
b0 T
1+
#2920
0+
#2925
b10011 ,
b10011 8
1-
b11000 *
b11000 M
1(
1+
#2930
0+
#2935
b0 ,
b0 8
0-
b1 T
0(
1+
#2940
0+
#2945
b10 T
1+
#2950
0+
#2955
b100 T
b11100 P
1+
#2960
0+
#2965
b0 T
1+
#2970
0+
#2975
b10011 ,
b10011 8
1-
b11100 *
b11100 M
1(
1+
#2980
0+
#2985
b0 ,
b0 8
0-
b1 T
0(
1+
#2990
0+
#2995
b10 T
1+
#3000
0+
#3005
b100 T
b100000 P
1+
#3010
0+
#3015
b0 T
1+
#3020
0+
#3025
b10011 ,
b10011 8
1-
b100000 *
b100000 M
1(
1+
#3030
0+
#3035
b0 ,
b0 8
0-
b1 T
0(
1+
#3040
0+
#3045
b10 T
1+
#3050
0+
#3055
b100 T
b100100 P
1+
#3060
0+
#3065
b0 T
1+
#3070
0+
#3075
b10011 ,
b10011 8
1-
b100100 *
b100100 M
1(
1+
#3080
0+
#3085
b0 ,
b0 8
0-
b1 T
0(
1+
#3090
0+
#3095
b10 T
1+
#3100
0+
#3105
b100 T
b101000 P
1+
#3110
0+
#3115
b0 T
b110001001111000011110001111000001100100010000000101000001100010011110000111100001101000011110100110001001101100010100100100000 b
b10000 `
1+
#3116
02
b100000000 4
b110 5
#3120
0+
#3125
b0 @
b0 *
b0 M
0)
b0 I
b0 P
b100000 Z
1+
#3130
0+
#3135
b100000 Z
1+
#3136
12
#3140
0+
#3145
b1000000000000000010010011 ,
b1000000000000000010010011 8
1-
1)
1(
1+
#3150
0+
#3155
b0 ,
b0 8
0-
b10011 @
b1 ?
b10000 <
b10000 D
b1 B
b100000000000 E
b1000000000000000000000000 A
b10000 C
b1 T
0(
b1000000000000000010010011 I
1+
#3160
0+
#3165
b10 T
b1 Y
1+
#3170
0+
#3175
b100 T
b100 P
b10000 W
1X
b10000 \
1+
#3180
0+
#3185
b0 T
1+
#3190
0+
#3195
b1000000000000100010011 ,
b1000000000000100010011 8
1-
b100 *
b100 M
1(
0X
1+
#3200
0+
#3205
b0 ,
b0 8
0-
b10 ?
b10 <
b10 D
b10 B
b10 E
b1000000000000000000000 A
b10 C
b1 T
0(
b1000000000000100010011 I
1+
#3210
0+
#3215
b10 T
b0 W
b10 Y
1+
#3220
0+
#3225
b100 T
b1000 P
b10 W
1X
b10 \
1+
#3230
0+
#3235
b10 ;
b0 T
1+
#3240
0+
#3245
b1000001101000110110011 ,
b1000001101000110110011 8
1-
b1000 *
b1000 M
1(
0X
1+
#3250
0+
#3255
b10000 =
b0 ,
b0 8
0-
b110011 @
b101 G
b11 ?
b1 >
b11 B
b100000000010 E
b1000001101000000000000 A
b1101000000000010 C
b1 T
0(
b1000001101000110110011 I
1+
#3260
0+
#3265
b10 T
b0 W
b11 Y
1+
#3270
0+
#3275
b100 T
b1100 P
b100 W
1X
b10000 [
b110 ]
1+
#3280
0+
#3285
b0 T
1+
#3290
0+
#3295
b10011 ,
b10011 8
1-
b1100 *
b1100 M
1(
0X
1+
#3300
0+
